{
  "name": "encryption_test_qa_copy_file",
  "projectDescription": "Test project created by xpresso platform",
  "owner": {
    "uid": "sanyog.vyawahare"
  },
  "developers": [
    "sanyog.vyawahare"
  ],
  "environments": [
    "DEV"
  ],
  "persistent_volume_size": 1,
  "components": [
    {
      "type": "pipeline_job",
      "flavor": "python",
      "name": "test_comp1",
      "description": "Relevant description"
    }
  ]
}
